<?xml version="1.0" encoding="UTF-8"?>
<svg width="128" height="128" version="1.1" viewBox="0 0 96 96" xmlns="http://www.w3.org/2000/svg">
  <path d="m47.429 95.743c-0.59487-0.2336-1.3788-0.81441-2.64-1.956-0.98664-0.89306-8.8495-8.033-17.473-15.867s-17.804-16.171-20.4-18.527c-6.2348-5.6576-6.8538-6.5303-6.6861-9.4274 0.06032-1.0419 0.16682-1.4348 0.61903-2.2837 0.78031-1.4647 40.904-45.617 42.219-46.459 1.539-0.98454 2.2723-1.1853 4.0878-1.1192 1.4244 0.051848 1.6938 0.11097 2.4405 0.53568 0.47043 0.26758 4.4759 3.7825 9.1136 7.9974 4.5508 4.136 14.253 12.944 21.56 19.573 7.3069 6.6289 13.597 12.384 13.977 12.788 1.3131 1.3969 1.8507 2.9515 1.7648 5.1037-0.04561 1.1428-0.14015 1.5848-0.49087 2.2954-0.32978 0.66809-5.3671 6.3069-20.918 23.416-11.266 12.395-20.741 22.741-21.056 22.991-1.1744 0.93331-1.939 1.1899-3.6713 1.2319-1.305 0.03165-1.756-0.02246-2.4461-0.29346zm3.9394-2.8517c0.33028-0.1685 1.0231-0.7625 1.5397-1.32 0.51655-0.5575 1.7735-1.9048 2.7931-2.9939 1.0197-1.0891 2.0264-2.1691 2.2372-2.4 0.21079-0.23086 1.2188-1.3121 2.24-2.4027 1.0212-1.0906 1.9695-2.1123 2.1072-2.2705 0.13777-0.15815 1.1098-1.2021 2.16-2.32 1.0502-1.1179 2.0264-2.1667 2.1693-2.3307 0.14288-0.16403 1.1149-1.2078 2.16-2.3196 1.0451-1.1117 2.0316-2.1732 2.1921-2.3588 0.16054-0.18564 0.73654-0.80672 1.28-1.3802s1.4531-1.5455 2.0214-2.16c0.56831-0.61453 1.5763-1.6953 2.24-2.4017 0.66369-0.70638 2.0413-2.1824 3.0614-3.28s4.5011-4.8389 7.7357-8.3139 5.9763-6.5026 6.0928-6.7278c0.3746-0.72439 0.42709-1.6794 0.14656-2.6665-0.31144-1.0959-0.34087-1.1266-7.0297-7.3255-2.464-2.2835-5.02-4.6636-5.68-5.289s-1.776-1.6663-2.48-2.3131-1.784-1.6514-2.4-2.2325c-0.616-0.58116-2.668-2.4924-4.56-4.2473s-3.944-3.6658-4.56-4.2466-2.2-2.057-3.52-3.2804c-1.32-1.2235-2.868-2.6651-3.44-3.2035-0.572-0.53848-2.696-2.5147-4.72-4.3917-2.024-1.8769-4.2656-3.9705-4.9813-4.6524-0.71573-0.68188-1.5949-1.3895-1.9536-1.5726-1.2658-0.64575-2.9974-0.29195-4.0752 0.83264-0.28041 0.29258-1.3738 1.461-2.4298 2.5965-1.056 1.1355-2.4014 2.5733-2.9899 3.1952-0.58844 0.62183-1.2238 1.3089-1.4119 1.5267-0.1881 0.21788-0.78665 0.86534-1.3301 1.4388s-1.4531 1.5455-2.0214 2.16c-0.56831 0.61453-1.6064 1.7293-2.307 2.4773-1.9273 2.0579-3.1127 3.3296-4.253 4.5627-0.56831 0.61453-1.5763 1.6951-2.24 2.4013-9.6481 10.266-21.766 23.427-22.047 23.943-0.461 0.84927-0.47297 1.976-0.03098 2.9163 0.36412 0.77464 0.6412 1.0494 7.271 7.2093 1.408 1.3082 2.992 2.7823 3.52 3.2758 0.528 0.49347 2.076 1.9347 3.44 3.2027s2.948 2.7444 3.52 3.2808c0.572 0.53645 2.084 1.9401 3.36 3.1193s2.86 2.6547 3.52 3.279c0.66 0.62433 2.208 2.0693 3.44 3.2111 1.232 1.1418 2.78 2.5865 3.44 3.2105s1.74 1.6289 2.4 2.2332c0.66 0.6043 2.208 2.043 3.44 3.1971 5.9706 5.5931 7.3956 6.8655 7.9933 7.137 0.85708 0.38932 2.1708 0.38683 2.94-0.0056zm-2.2127-7.6517c-0.80978-0.15104-2.5865-1.3747-3.4927-2.4055-0.49931-0.56796-1.622-1.6043-2.4949-2.3031-0.87291-0.69873-1.8371-1.5913-2.1427-1.9836-0.3056-0.39225-1.0314-1.0664-1.6129-1.4981-0.5815-0.43172-1.4533-1.1909-1.9373-1.687s-1.3351-1.2685-1.8914-1.7162c-0.55629-0.44778-1.4104-1.3141-1.898-1.9253-0.50528-0.63328-1.4465-1.5241-2.1886-2.0715-0.71611-0.52822-2.7433-2.3776-4.5049-4.1098-2.0479-2.0137-3.5226-3.3298-4.0894-3.6497-0.5201-0.29353-1.3051-0.97243-1.8991-1.6424-0.55687-0.62812-1.5606-1.5815-2.2306-2.1186s-1.3968-1.2003-1.6153-1.4738c-0.21849-0.27352-1.5079-1.6493-2.8653-3.0573-2.6653-2.7647-3.6975-3.9762-3.6975-4.34 0-0.3554 0.45516-1.0068 1.4395-2.06 0.49346-0.528 1.4458-1.644 2.1163-2.48s2.5342-2.78 4.1415-4.32c3.3689-3.2278 6.1019-6.2433 8.6794-9.5763 0.99679-1.289 2.5258-3.1305 3.3979-4.0921 0.87204-0.96161 1.9363-2.1496 2.3651-2.64 1.586-1.8141 5.5176-5.9332 8.2578-8.6516 1.5523-1.54 3.1323-3.195 3.5111-3.6779 0.72178-0.91999 1.4154-1.4697 2.3445-1.8579 0.52053-0.21749 0.56196-0.21189 0.67404 0.09109 0.06568 0.17755 0.34588 0.48523 0.62267 0.68372 0.78179 0.56066 3.4692 2.7912 4.9928 4.144 2.2766 2.0213 8.6709 8.2736 10.074 9.8504 0.72125 0.8104 1.8248 1.9264 2.4523 2.48 0.62749 0.5536 1.7597 1.573 2.516 2.2654 1.344 1.2304 3.1529 2.6752 4.3147 3.4464 0.97676 0.64835 2.7692 2.1728 3.7804 3.2153 0.528 0.5443 2.1638 1.957 3.635 3.1394 1.4713 1.1824 2.8921 2.4176 3.1575 2.7449 1.7244 2.1273 2.7522 3.5453 2.9049 4.0079 0.10301 0.31214 0.13173 0.88927 0.06917 1.39-0.10089 0.80752-0.1821 0.93199-1.4267 2.1868-2.047 2.0638-3.4801 3.3943-4.1799 3.8808-0.352 0.24469-1.072 0.87246-1.6 1.3951s-1.968 1.9367-3.2 3.1425c-1.232 1.2058-2.6708 2.6963-3.1974 3.3122-0.52656 0.61596-1.3596 1.5588-1.8513 2.0951-0.49166 0.53634-1.4261 1.6163-2.0764 2.4-1.5419 1.8578-4.684 5.0728-6.3713 6.5192-1.3275 1.1379-6.0516 6.1604-6.9468 7.3856-0.25719 0.352-0.79016 1.1966-1.1844 1.8768-0.5586 0.96393-0.98208 1.4503-1.9195 2.2043-1.0255 0.82494-2.3285 1.6514-2.4866 1.5771-0.02551-0.01198-0.22613-0.05532-0.44584-0.0963zm-5.0818-17.626c0.50556-0.19222 2.5547-3.079 3.532-4.9757 0.43074-0.836 1.1099-2.0782 1.5093-2.7604 0.62036-1.0597 0.7616-1.2112 0.96956-1.04 0.43793 0.36062 1.2477 1.7682 2.0319 3.5319 1.328 2.9867 3.0413 5.0686 4.1713 5.0686 0.82481 0 1.5812-0.77062 1.46-1.4874-0.10368-0.61305-0.93214-2.094-2.3644-4.2267-0.57838-0.86123-1.1904-1.7939-1.36-2.0725-0.16962-0.27866-0.7404-1.1417-1.2684-1.918l-0.96-1.4113-0.02794-5.762-0.02794-5.762 3.3079-0.01372c3.5151-0.01458 7.5845-0.30399 8.5023-0.60468 0.3172-0.10392 0.63745-0.35271 0.74866-0.5816 0.46258-0.95208 1.9376-6.2107 2.3831-8.496l0.26823-1.376-0.41914-0.66396c-0.36974-0.58572-0.48961-0.6639-1.0171-0.66337-1.2202 0.0012-1.4759 0.33037-2.3111 2.9748-0.41422 1.3115-0.83127 2.7446-0.92676 3.1846-0.0955 0.44-0.33596 1.268-0.53437 1.84-0.34586 0.9971-0.38353 1.0412-0.91324 1.0685-2.4601 0.12692-22.976 0.29461-24.593 0.20101-1.2127-0.07022-1.475 0.12741-1.6456 1.24-0.08366 0.5456-0.05289 0.89757 0.10543 1.2058 0.24545 0.47785 0.77679 0.83101 1.077 0.71582 0.10544-0.04046 0.87381-0.01289 1.7075 0.06127s3.5764 0.08372 6.0948 0.02124l4.5791-0.11359 0.10095 1.4246c0.05552 0.78352 0.10095 3.1455 0.10095 5.2489v3.8243l-0.58216 1.0711c-0.32019 0.58913-0.88237 1.6471-1.2493 2.3511-1.0331 1.9822-1.4666 2.7074-3.0746 5.1428-0.89078 1.3492-1.494 2.4255-1.494 2.6658 0 0.25353 0.18254 0.55654 0.49228 0.81716 0.51525 0.43356 0.98918 0.51221 1.6264 0.26992zm-14.119-10.98c1.276-0.0259 2.5227-0.1256 2.7704-0.22156 0.24773-0.09595 0.66007-0.17446 0.91631-0.17446 0.66315 0 0.90349-0.49007 0.86314-1.76-0.01818-0.572-0.08248-3.1606-0.1429-5.7525-0.08197-3.5164-0.16787-4.8514-0.33841-5.2595-0.1257-0.30085-0.22855-0.67105-0.22855-0.82266 0-0.40704-0.44282-0.72416-1.5255-1.0925-1.2864-0.43763-6.5295-0.66556-8.2849-0.36016-1.8792 0.32692-2.3256 0.56989-2.4246 1.3198-0.02672 0.2022-0.13367 0.72764-0.23768 1.1676-0.23386 0.98934-0.25573 6.0162-0.03236 7.44 0.08973 0.572 0.25106 1.796 0.35851 2.72 0.21662 1.8628 0.30785 2.1286 0.85313 2.4859 0.48952 0.32074 2.5955 0.55369 4.0135 0.44393 0.616-0.04768 2.164-0.10789 3.44-0.13379zm-5.1229-3.3521c-0.0016-0.0021-0.03546-1.5159-0.0753-3.3639-0.03983-1.848-0.14324-3.8253-0.22978-4.394-0.08655-0.56871-0.14266-1.0439-0.1247-1.056 0.01796-0.0121 0.93266 0.03617 2.0327 0.10727 1.1 0.07109 2.4097 0.08748 2.9105 0.03642 0.50077-0.05107 1.1768-0.04288 1.5023 0.01818l0.59184 0.11103-0.10238 2.5086c-0.21758 5.3312-0.26743 5.7853-0.64378 5.8645-0.23772 0.05001-5.8303 0.2103-5.8614 0.168zm3.4506-1.1132c0.48183-0.73537-0.4121-1.5459-1.0591-0.96035-0.37835 0.3424-0.39199 0.67221-0.04374 1.057 0.36564 0.40402 0.79975 0.36597 1.1029-0.09667zm-0.0061-2.7552c0.22335-0.22335 0.25081-0.50969 0.17658-1.8409-0.1023-1.8355-0.25157-2.2146-0.8718-2.2146-0.71513 0-0.82637 0.25035-0.82637 1.8597 0 1.3542 0.03411 1.5163 0.41422 1.968 0.46841 0.55667 0.72562 0.60958 1.1074 0.22779zm25.998-9.4794c1.1439-0.43393 2.3738-1.3826 2.7573-2.1267 0.67504-1.3099 0.6538-3.3976-0.04868-4.7867-0.40724-0.80525-2.333-2.5432-3.5177-3.1746-2.5206-1.3435-5.7169-0.83515-7.7911 1.2391-1.7757 1.7757-2.0992 3.6639-1.0077 5.8812 0.73879 1.5007 2.0857 2.5356 4.0878 3.141 1.3255 0.40079 4.2486 0.30904 5.52-0.17326zm-5.2088-2.8132c-0.26884-0.13898-0.82684-0.56304-1.24-0.94237-0.64962-0.59641-0.75113-0.77427-0.75061-1.3151 0.0011-1.1986 0.85176-2.0678 2.5001-2.5546 0.78495-0.23182 0.87155-0.22528 1.9856 0.14986 0.6519 0.21953 1.4416 0.62717 1.7934 0.92576 0.579 0.49145 0.63552 0.61256 0.7169 1.5361 0.09754 1.107-0.03184 1.3612-0.99632 1.9573-0.71536 0.44212-3.3187 0.59998-4.009 0.2431z"/>
</svg>
